{
  "project_info": {
    "project_number": "1088332082950",
    "project_id": "ponysafety",
    "storage_bucket": "ponysafety.appspot.com"
  },
  "client": [
    {
      "client_info": {
        "mobilesdk_app_id": "1:1088332082950:android:f03d5f7fbca79cacf1b887",
        "android_client_info": {
          "package_name": "mx.app.ponysafety"
        }
      },
      "oauth_client": [
        {
          "client_id": "1088332082950-04v4uiev5nvvrebuvb18r2sqpiilvslp.apps.googleusercontent.com",
          "client_type": 3
        }
      ],
      "api_key": [
        {
          "current_key": "AIzaSyAWOs1qHELkgRRBj9FPutExyPvtUZcy6YQ"
        }
      ],
      "services": {
        "appinvite_service": {
          "other_platform_oauth_client": [
            {
              "client_id": "1088332082950-04v4uiev5nvvrebuvb18r2sqpiilvslp.apps.googleusercontent.com",
              "client_type": 3
            }
          ]
        }
      }
    }
  ],
  "configuration_version": "1"
}